Data Visualization - Data Wrangling in R
…
summarise() - Aggregate data

group_by() - Group operations

Select: Choosing Columns

Basic Select

Question: How do I select specific columns?

bp_clean |> 
  select(patient_id, age, gender, region)

#> # A tibble: 200 × 4
#>    patient_id   age gender region
#>         <dbl> <dbl> <chr>  <chr> 
#>  1          1    36 Female South 
#>  2          2    79 Male   South 
#>  3          3    19 Male   West  
#>  4          4    70 Female West  
#>  5          5    61 Male   West  
#>  6          6    43 Male   North 
#>  7          7    49 Male   East  
#>  8          8    23 Male   North 
#>  9          9    49 Female East  
#> 10         10    72 Male   North 
#> # ℹ 190 more rows

Select: Removing Columns

# Remove columns with minus sign
bp_clean |> 
  select(-latitude, -longitude)

#> # A tibble: 200 × 20
#>    patient_id treatment_group   age gender region smoking_status alcohol_use
#>         <dbl> <chr>           <dbl> <chr>  <chr>  <chr>          <chr>      
#>  1          1 Control            36 Female South  Non-smoker     No         
#>  2          2 Control            79 Male   South  Former smoker  No         
#>  3          3 Control            19 Male   West   Former smoker  No         
#>  4          4 Intervention       70 Female West   Current smoker No         
#>  5          5 Intervention       61 Male   West   Current smoker No         
#>  6          6 Intervention       43 Male   North  Former smoker  No         
#>  7          7 Control            49 Male   East   Current smoker Yes        
#>  8          8 Intervention       23 Male   North  Former smoker  Yes        
#>  9          9 Intervention       49 Female East   Former smoker  No         
#> 10         10 Control            72 Male   North  Non-smoker     No         
#> # ℹ 190 more rows
#> # ℹ 13 more variables: bmi <dbl>, exercise_freq <chr>, chronic_disease <chr>,
#> #   vaccinated <chr>, cholesterol <dbl>, blood_sugar <dbl>,
#> #   baseline_date <dttm>, sys_bp_0m <dbl>, dia_bp_0m <dbl>, sys_bp_3m <dbl>,
#> #   sys_bp_6m <dbl>, dia_bp_3m <dbl>, dia_bp_6m <dbl>

Common Error: Forgetting the minus sign removes nothing!

Select: Range of Columns

Question: Select all columns from age to bmi

bp_clean |> 
  select(age:bmi)

#> # A tibble: 200 × 6
#>      age gender region smoking_status alcohol_use   bmi
#>    <dbl> <chr>  <chr>  <chr>          <chr>       <dbl>
#>  1    36 Female South  Non-smoker     No           26.9
#>  2    79 Male   South  Former smoker  No           24.4
#>  3    19 Male   West   Former smoker  No           23.9
#>  4    70 Female West   Current smoker No           31  
#>  5    61 Male   West   Current smoker No           26.2
#>  6    43 Male   North  Former smoker  No           27.2
#>  7    49 Male   East   Current smoker Yes          27.7
#>  8    23 Male   North  Former smoker  Yes          25.7
#>  9    49 Female East   Former smoker  No           27.6
#> 10    72 Male   North  Non-smoker     No           24.4
#> # ℹ 190 more rows
…
# Columns ending with "0m"
select(ends_with("0m"))

# Columns containing "bp"
select(contains("bp"))

Select Helpers: starts_with()

Question: Select all systolic BP measurements

bp_clean |> 
  select(patient_id, starts_with("sys_bp"))

#> # A tibble: 200 × 4
#>    patient_id sys_bp_0m sys_bp_3m sys_bp_6m
#>         <dbl>     <dbl>     <dbl>     <dbl>
#>  1          1       122       123       120
#>  2          2       128       127       131
#>  3          3       158       156       154
#>  4          4       115       110       108
#>  5          5       157       149       146
#>  6          6       121       114       113
#>  7          7       146       143       148
#>  8          8       126       119       117
#>  9          9       132       125       122
#> 10         10       135       136       133
#> # ℹ 190 more rows

Select Helpers: ends_with()

Question: Select all baseline measurements (ending with 0m)

bp_clean |> 
  select(patient_id, ends_with("0m"))

#> # A tibble: 200 × 3
#>    patient_id sys_bp_0m dia_bp_0m
#>         <dbl>     <dbl>     <dbl>
#>  1          1       122        94
#>  2          2       128        95
#>  3          3       158        94
#>  4          4       115        79
#>  5          5       157        96
#>  6          6       121        82
#>  7          7       146        88
#>  8          8       126        80
#>  9          9       132        82
#> 10         10       135        90
#> # ℹ 190 more rows

Select Helpers: contains()

Question: Select all blood pressure columns

bp_clean |> 
  select(patient_id, contains("bp"))

#> # A tibble: 200 × 7
#>    patient_id sys_bp_0m dia_bp_0m sys_bp_3m sys_bp_6m dia_bp_3m dia_bp_6m
#>         <dbl>     <dbl>     <dbl>     <dbl>     <dbl>     <dbl>     <dbl>
#>  1          1       122        94       123       120        97        96
#>  2          2       128        95       127       131        98        98
#>  3          3       158        94       156       154        94        90
#>  4          4       115        79       110       108        74        75
#>  5          5       157        96       149       146        91        92
#>  6          6       121        82       114       113        81        75
#>  7          7       146        88       143       148        87        84
#>  8          8       126        80       119       117        76        74
#>  9          9       132        82       125       122        79        75
#> 10         10       135        90       136       133        91        86
#> # ℹ 190 more rows

Select Helpers: matches()

# Use regular expressions
bp_clean |> 
  select(matches("^(sys|dia)_bp"))

#> # A tibble: 200 × 6
#>    sys_bp_0m dia_bp_0m sys_bp_3m sys_bp_6m dia_bp_3m dia_bp_6m
#>        <dbl>     <dbl>     <dbl>     <dbl>     <dbl>     <dbl>
#>  1       122        94       123       120        97        96
#>  2       128        95       127       131        98        98
#>  3       158        94       156       154        94        90
#>  4       115        79       110       108        74        75
#>  5       157        96       149       146        91        92
#>  6       121        82       114       113        81        75
#>  7       146        88       143       148        87        84
#>  8       126        80       119       117        76        74
#>  9       132        82       125       122        79        75
#> 10       135        90       136       133        91        86
#> # ℹ 190 more rows

Selects columns starting with “sys_bp” or “dia_bp”

Select Helpers: where()

Question: Select all numeric columns

bp_clean |> 
  select(where(is.numeric))

#> # A tibble: 200 × 13
#>    patient_id   age   bmi cholesterol blood_sugar latitude longitude sys_bp_0m
#>         <dbl> <dbl> <dbl>       <dbl>       <dbl>    <dbl>     <dbl>     <dbl>
#>  1          1    36  26.9         211          89     36.5      78.0       122
#>  2          2    79  24.4         156          93     12.1      82.7       128
#>  3          3    19  23.9         241         106     13.9      93.4       158
#>  4          4    70  31           163         123     13.3      82.3       115
#>  5          5    61  26.2         235         172     33.9      88.4       157
#>  6          6    43  27.2         282         107     27.0      96.8       121
#>  7          7    49  27.7         279          73     12.4      71.8       146
#>  8          8    23  25.7         211         126     20.8      76.0       126
#>  9          9    49  27.6         298          89     25.8      79.4       132
#> 10         10    72  24.4         228          86     10.4      80.2       135
#> # ℹ 190 more rows
#> # ℹ 5 more variables: dia_bp_0m <dbl>, sys_bp_3m <dbl>, sys_bp_6m <dbl>,
#> #   dia_bp_3m <dbl>, dia_bp_6m <dbl>

Select Helpers: everything()

Question: Move patient_id to the front

bp_clean |> 
  select(patient_id, everything())

#> # A tibble: 200 × 22
#>    patient_id treatment_group   age gender region smoking_status alcohol_use
#>         <dbl> <chr>           <dbl> <chr>  <chr>  <chr>          <chr>      
#>  1          1 Control            36 Female South  Non-smoker     No         
#>  2          2 Control            79 Male   South  Former smoker  No         
#>  3          3 Control            19 Male   West   Former smoker  No         
#>  4          4 Intervention       70 Female West   Current smoker No         
#>  5          5 Intervention       61 Male   West   Current smoker No         
#>  6          6 Intervention       43 Male   North  Former smoker  No         
#>  7          7 Control            49 Male   East   Current smoker Yes        
#>  8          8 Intervention       23 Male   North  Former smoker  Yes        
#>  9          9 Intervention       49 Female East   Former smoker  No         
#> 10         10 Control            72 Male   North  Non-smoker     No         
#> # ℹ 190 more rows
#> # ℹ 15 more variables: bmi <dbl>, exercise_freq <chr>, chronic_disease <chr>,
#> #   vaccinated <chr>, cholesterol <dbl>, blood_sugar <dbl>, latitude <dbl>,
#> #   longitude <dbl>, baseline_date <dttm>, sys_bp_0m <dbl>, dia_bp_0m <dbl>,
#> #   sys_bp_3m <dbl>, sys_bp_6m <dbl>, dia_bp_3m <dbl>, dia_bp_6m <dbl>
…
Filter: Single Condition

Question: Which patients are in the intervention group?

bp_clean |> 
  filter(treatment_group == "Intervention")

#> # A tibble: 100 × 22
#>    patient_id treatment_group   age gender region smoking_status alcohol_use
#>         <dbl> <chr>           <dbl> <chr>  <chr>  <chr>          <chr>      
#>  1          4 Intervention       70 Female West   Current smoker No         
#>  2          5 Intervention       61 Male   West   Current smoker No         
#>  3          6 Intervention       43 Male   North  Former smoker  No         
#>  4          8 Intervention       23 Male   North  Former smoker  Yes        
#>  5          9 Intervention       49 Female East   Former smoker  No         
#>  6         12 Intervention       72 Female North  Former smoker  Yes        
#>  7         13 Intervention       28 Male   West   Non-smoker     No         
#>  8         15 Intervention       76 Male   North  Current smoker No         
#>  9         16 Intervention       34 Female East   Non-smoker     No         
#> 10         18 Intervention       41 Male   North  Former smoker  No         
#> # ℹ 90 more rows
#> # ℹ 15 more variables: bmi <dbl>, exercise_freq <chr>, chronic_disease <chr>,
#> #   vaccinated <chr>, cholesterol <dbl>, blood_sugar <dbl>, latitude <dbl>,
#> #   longitude <dbl>, baseline_date <dttm>, sys_bp_0m <dbl>, dia_bp_0m <dbl>,
#> #   sys_bp_3m <dbl>, sys_bp_6m <dbl>, dia_bp_3m <dbl>, dia_bp_6m <dbl>

Common Error: Using = instead of == for comparison

Filter: Numeric Conditions

Question: Which patients are over 60 years old?

bp_clean |> 
  filter(age > 60)

#> # A tibble: 64 × 22
#>    patient_id treatment_group   age gender region smoking_status alcohol_use
#>         <dbl> <chr>           <dbl> <chr>  <chr>  <chr>          <chr>      
#>  1          2 Control            79 Male   South  Former smoker  No         
#>  2          4 Intervention       70 Female West   Current smoker No         
#>  3          5 Intervention       61 Male   West   Current smoker No         
#>  4         10 Control            72 Male   North  Non-smoker     No         
#>  5         12 Intervention       72 Female North  Former smoker  Yes        
#>  6         14 Control            73 Male   South  Non-smoker     No         
#>  7         15 Intervention       76 Male   North  Current smoker No         
#>  8         20 Control            69 Male   West   Non-smoker     No         
#>  9         25 Control            65 Male   South  Former smoker  No         
#> 10         29 Intervention       77 Male   North  Non-smoker     No         
#> # ℹ 54 more rows
#> # ℹ 15 more variables: bmi <dbl>, exercise_freq <chr>, chronic_disease <chr>,
#> #   vaccinated <chr>, cholesterol <dbl>, blood_sugar <dbl>, latitude <dbl>,
#> #   longitude <dbl>, baseline_date <dttm>, sys_bp_0m <dbl>, dia_bp_0m <dbl>,
#> #   sys_bp_3m <dbl>, sys_bp_6m <dbl>, dia_bp_3m <dbl>, dia_bp_6m <dbl>

Filter: Multiple Conditions (AND)

Question: Intervention patients over 60?

bp_clean |> 
  filter(treatment_group == "Intervention" & age > 60) 

#> # A tibble: 37 × 22
#>    patient_id treatment_group   age gender region smoking_status alcohol_use
#>         <dbl> <chr>           <dbl> <chr>  <chr>  <chr>          <chr>      
#>  1          4 Intervention       70 Female West   Current smoker No         
#>  2          5 Intervention       61 Male   West   Current smoker No         
#>  3         12 Intervention       72 Female North  Former smoker  Yes        
#>  4         15 Intervention       76 Male   North  Current smoker No         
#>  5         29 Intervention       77 Male   North  Non-smoker     No         
#>  6         30 Intervention       76 Male   North  Non-smoker     Yes        
#>  7         36 Intervention       77 Male   East   Former smoker  Yes        
#>  8         37 Intervention       76 Female West   Non-smoker     Yes        
#>  9         46 Intervention       69 Female North  Non-smoker     No         
#> 10         68 Intervention       65 Female West   Former smoker  No         
#> # ℹ 27 more rows
#> # ℹ 15 more variables: bmi <dbl>, exercise_freq <chr>, chronic_disease <chr>,
#> #   vaccinated <chr>, cholesterol <dbl>, blood_sugar <dbl>, latitude <dbl>,
#> #   longitude <dbl>, baseline_date <dttm>, sys_bp_0m <dbl>, dia_bp_0m <dbl>,
#> #   sys_bp_3m <dbl>, sys_bp_6m <dbl>, dia_bp_3m <dbl>, dia_bp_6m <dbl>

# Alternative: comma means AND
# bp_clean |> 
#  filter(treatment_group == "Intervention", age > 60)

Filter: Multiple Conditions (OR)

Question: Patients who are either current smokers OR use alcohol?

bp_clean |> 
  filter(smoking_status == "Current smoker" | alcohol_use == "Yes")

#> # A tibble: 80 × 22
#>    patient_id treatment_group   age gender region smoking_status alcohol_use
#>         <dbl> <chr>           <dbl> <chr>  <chr>  <chr>          <chr>      
#>  1          4 Intervention       70 Female West   Current smoker No         
#>  2          5 Intervention       61 Male   West   Current smoker No         
#>  3          7 Control            49 Male   East   Current smoker Yes        
#>  4          8 Intervention       23 Male   North  Former smoker  Yes        
#>  5         12 Intervention       72 Female North  Former smoker  Yes        
#>  6         15 Intervention       76 Male   North  Current smoker No         
#>  7         21 Intervention       51 Male   North  Current smoker No         
#>  8         22 Control            23 Male   South  Former smoker  Yes        
#>  9         30 Intervention       76 Male   North  Non-smoker     Yes        
#> 10         32 Control            33 Female North  Non-smoker     Yes        
#> # ℹ 70 more rows
#> # ℹ 15 more variables: bmi <dbl>, exercise_freq <chr>, chronic_disease <chr>,
#> #   vaccinated <chr>, cholesterol <dbl>, blood_sugar <dbl>, latitude <dbl>,
#> #   longitude <dbl>, baseline_date <dttm>, sys_bp_0m <dbl>, dia_bp_0m <dbl>,
#> #   sys_bp_3m <dbl>, sys_bp_6m <dbl>, dia_bp_3m <dbl>, dia_bp_6m <dbl>

Filter: Using %in%

Question: Patients from North or South regions?

bp_clean |> 
  filter(region %in% c("North", "South"))

#> # A tibble: 113 × 22
#>    patient_id treatment_group   age gender region smoking_status alcohol_use
#>         <dbl> <chr>           <dbl> <chr>  <chr>  <chr>          <chr>      
#>  1          1 Control            36 Female South  Non-smoker     No         
#>  2          2 Control            79 Male   South  Former smoker  No         
#>  3          6 Intervention       43 Male   North  Former smoker  No         
#>  4          8 Intervention       23 Male   North  Former smoker  Yes        
#>  5         10 Control            72 Male   North  Non-smoker     No         
#>  6         12 Intervention       72 Female North  Former smoker  Yes        
#>  7         14 Control            73 Male   South  Non-smoker     No         
#>  8         15 Intervention       76 Male   North  Current smoker No         
#>  9         18 Intervention       41 Male   North  Former smoker  No         
#> 10         19 Control            22 Female North  Former smoker  No         
#> # ℹ 103 more rows
#> # ℹ 15 more variables: bmi <dbl>, exercise_freq <chr>, chronic_disease <chr>,
#> #   vaccinated <chr>, cholesterol <dbl>, blood_sugar <dbl>, latitude <dbl>,
#> #   longitude <dbl>, baseline_date <dttm>, sys_bp_0m <dbl>, dia_bp_0m <dbl>,
#> #   sys_bp_3m <dbl>, sys_bp_6m <dbl>, dia_bp_3m <dbl>, dia_bp_6m <dbl>
…
#> # A tibble: 2 × 22
#>   patient_id treatment_group   age gender region smoking_status alcohol_use
#>        <dbl> <chr>           <dbl> <chr>  <chr>  <chr>          <chr>      
#> 1        147 Control            68 Male   North  Non-smoker     No         
#> 2        153 Control            38 Male   East   Non-smoker     No         
#> # ℹ 15 more variables: bmi <dbl>, exercise_freq <chr>, chronic_disease <chr>,
#> #   vaccinated <chr>, cholesterol <dbl>, blood_sugar <dbl>, latitude <dbl>,
#> #   longitude <dbl>, baseline_date <dttm>, sys_bp_0m <dbl>, dia_bp_0m <dbl>,
#> #   sys_bp_3m <dbl>, sys_bp_6m <dbl>, dia_bp_3m <dbl>, dia_bp_6m <dbl>

# NOT missing exercise data
bp_clean |> 
  filter(!is.na(exercise_freq)) 

#> # A tibble: 198 × 22
#>    patient_id treatment_group   age gender region smoking_status alcohol_use
#>         <dbl> <chr>           <dbl> <chr>  <chr>  <chr>          <chr>      
#>  1          1 Control            36 Female South  Non-smoker     No         
#>  2          2 Control            79 Male   South  Former smoker  No         
#>  3          3 Control            19 Male   West   Former smoker  No         
#>  4          4 Intervention       70 Female West   Current smoker No         
#>  5          5 Intervention       61 Male   West   Current smoker No         
#>  6          6 Intervention       43 Male   North  Former smoker  No         
#>  7          7 Control            49 Male   East   Current smoker Yes        
#>  8          8 Intervention       23 Male   North  Former smoker  Yes        
#>  9          9 Intervention       49 Female East   Former smoker  No         
#> 10         10 Control            72 Male   North  Non-smoker     No         
#> # ℹ 188 more rows
#> # ℹ 15 more variables: bmi <dbl>, exercise_freq <chr>, chronic_disease <chr>,
#> #   vaccinated <chr>, cholesterol <dbl>, blood_sugar <dbl>, latitude <dbl>,
#> #   longitude <dbl>, baseline_date <dttm>, sys_bp_0m <dbl>, dia_bp_0m <dbl>,
#> #   sys_bp_3m <dbl>, sys_bp_6m <dbl>, dia_bp_3m <dbl>, dia_bp_6m <dbl>
…
